[{
  "id": null,
  "datasetName": "Businessowners",
  "systemRefId": "misc.IsDesiredBOP",
  "valueName": [1, 0],
  "valueType": null,
  "typeName": "Lob",
  "controlName": "Check_Box",
  "appearUI": "Y",
  "isRequiredToQuote": true,
  "userValue": 1,
  "additionalInfo": null,
  "displaySequence": 1,
  "lobName": null,
  "eligibilty": null
}, {
  "id": null,
  "datasetName": "Businessowners Umbrella",
  "systemRefId": "misc.IsDesiredUmbrella",
  "valueName": [1, 0],
  "valueType": null,
  "typeName": "Lob",
  "controlName": "Check_Box",
  "appearUI": "Y",
  "isRequiredToQuote": null,
  "userValue": 0,
  "additionalInfo": null,
  "displaySequence": 2,
  "lobName": null,
  "eligibilty": null
}, {
  "id": null,
  "datasetName": "Workers Compensation",
  "systemRefId": "misc.IsDesiredWC",
  "valueName": [1, 0],
  "valueType": null,
  "typeName": "Lob",
  "controlName": "Check_Box",
  "appearUI": "Y",
  "isRequiredToQuote": null,
  "userValue": 0,
  "additionalInfo": null,
  "displaySequence": 3,
  "lobName": null,
  "eligibilty": null
}, {
  "id": null,
  "datasetName": "Commercial Auto",
  "systemRefId": "misc.IsDesiredAuto",
  "valueName": [1, 0],
  "valueType": null,
  "typeName": "Lob",
  "controlName": "Check_Box",
  "appearUI": "Y",
  "isRequiredToQuote": null,
  "userValue": 0,
  "additionalInfo": null,
  "displaySequence": 4,
  "lobName": null,
  "eligibilty": null
}, {
  "id": null,
  "datasetName": "Massachusetts Commercial Auto",
  "systemRefId": "misc.IsDesiredAutoMA",
  "valueName": [1, 0],
  "valueType": null,
  "typeName": "Lob",
  "controlName": "Check_Box",
  "appearUI": "Y",
  "isRequiredToQuote": null,
  "userValue": 0,
  "additionalInfo": null,
  "displaySequence": 5,
  "lobName": null,
  "eligibilty": null
}, {
  "id": null,
  "datasetName": "Commercial Package Policy*",
  "systemRefId": "misc.IsDesiredCPP",
  "valueName": [1, 0],
  "valueType": null,
  "typeName": "Lob",
  "controlName": "Check_Box",
  "appearUI": "Y",
  "isRequiredToQuote": null,
  "userValue": 0,
  "additionalInfo": "*May be eligible for Umbrella coverage.  Please upload application when uploading CPP application.",
  "displaySequence": 6,
  "lobName": null,
  "eligibilty": null
}]
