{"SYQ":["hdgfh"],
    "Locationpage": ["true"],
    "LocationsData": [
      {
        "locationId":["1"],
        "BuildingData":[{}],
        "LocationAddress": [
           {
              "widgetId": "101",
              "widgetName": "Location Address",
              "widgetDescription": null,
              "correspondingEntityType": "dfmhkhk",
              "datasetId": "1002",
              "datasetName": "STREET ADDRESS",
              "parentDatasetId": null,
              "additionalInfo": "Address Line 1",
              "mappingId": "10001",
              "systemRefId": "LocationInput.Address1",
              "entityTypeId": "1",
              "entityType": "Widget",
              "applicabilityID": null,
              "applicabilityCriteria": null,
              "applicabilityCriteriaValue": null,
              "eventAssociatedID": null,
              "eventName": null,
              "defaultValue": null,
              "valueSeqID": 121,
              "valueID": 1,
              "valueType": null,
              
              "valueName": " ",
              "displayValue": null,
              "datasetVersion": "1.0",
              "displaySequence": "1",
              "validationSeqID": 102,
              "validationID": 2,
              "validationName": [
                "Required",
                "Alphanumeric"
              ],
              "typeSeqID": 104,
              "typeID": 4,
              "typeName": "Location",
              "controlTypeID": 1,
              "controlName": "Text_Box",
              "url": null,
              "appearUI": "Y",
              "editable": "Y"
            },
            {
              "widgetId": "101",
              "widgetName": "Location Address",
              "widgetDescription": "",
              "correspondingEntityType": "Location Address",
              "datasetId": "1003",
              "datasetName": "APT./SUITE",
              "parentDatasetId": null,
              "additionalInfo": "Address Line 2",
              "mappingId": "10002",
              "systemRefId": "LocationInput.Address2",
              "entityTypeId": "1",
              "entityType": "Widget",
              "applicabilityID": null,
              "applicabilityCriteria": null,
              "applicabilityCriteriaValue": null,
              "eventAssociatedID": null,
              "eventName": null,
              "defaultValue": null,
              "valueSeqID": 121,
              "valueID": 1,
              "valueType": null,
              
              "valueName": " ",
              "displayValue": null,
              "datasetVersion": "1.0",
              "displaySequence": "1",
              "validationSeqID": 102,
              "validationID": 2,
              "validationName": [
                "Alphanumeric"
              ],
              "typeSeqID": 104,
              "typeID": 4,
              "typeName": "Location",
              "controlTypeID": 1,
              "controlName": "Text_Box",
              "url": null,
              "appearUI": "Y",
              "editable": "Y"
            },
            {
              "widgetId": "101",
              "widgetName": "Location Address",
              "widgetDescription": null,
              "correspondingEntityType": "Location Address",
              "datasetId": "1004",
              "datasetName": "CITY",
              "parentDatasetId": null,
              "additionalInfo": "City",
              "mappingId": "10003",
              "systemRefId": "LocationInput.City",
              "entityTypeId": "1",
              "entityType": "Widget",
              "applicabilityID": null,
              "applicabilityCriteria": null,
              "applicabilityCriteriaValue": null,
              "eventAssociatedID": null,
              "eventName": null,
              "defaultValue": null,
              "valueSeqID": 121,
              "valueID": 1,
              "valueType": null,
             
              "valueName": " ",
              "displayValue": null,
              "datasetVersion": "1.0",
              "displaySequence": "2",
              "validationSeqID": 102,
              "validationID": 2,
              "validationName": [
                "Required",
                "Alphanumeric"
              ],
              "typeSeqID": 104,
              "typeID": 4,
              "typeName": "Location",
              "controlTypeID": 1,
              "controlName": "Text_Box",
              "url": null,
              "appearUI": "Y",
              "editable": "Y"
            },
            {
              "widgetId": "101",
              "widgetName": "Location Address",
              "widgetDescription": null,
              "correspondingEntityType": "Location Address",
              "datasetId": "1005",
              "datasetName": "STATE",
              "parentDatasetId": null,
              "additionalInfo": "Select a State",
              "mappingId": "10004",
              "systemRefId": "state",
              "entityTypeId": "1",
              "entityType": "Widget",
              "applicabilityID": null,
              "applicabilityCriteria": null,
              "applicabilityCriteriaValue": null,
              "eventAssociatedID": null,
              "eventName": null,
              "defaultValue": null,
              "valueSeqID": 121,
              "valueID": 1,
              "valueType": null,
             
              "valueName": " ",
              "displayValue": null,
              "datasetVersion": "1.0",
              "displaySequence": "2",
              "validationSeqID": 102,
              "validationID": 2,
              "validationName": [
                "Required",
                "Alphanumeric"
              ],
              "typeSeqID": 104,
              "typeID": 4,
              "typeName": "Location",
              "controlTypeID": 1,
              "controlName": "Text_Box",
              "url": null,
              "appearUI": "Y",
              "editable": "N"
            },
            {
              "widgetId": "101",
              "widgetName": "Location Address",
              "widgetDescription": null,
              "correspondingEntityType": "Location Address",
              "datasetId": "1006",
              "datasetName": "ZIP CODE",
              "parentDatasetId": null,
              "additionalInfo": "Zip Code",
              "mappingId": "10005",
              "systemRefId": "LocationInput.ZipCode",
              "entityTypeId": "1",
              "entityType": "Widget",
              "applicabilityID": null,
              "applicabilityCriteria": null,
              "applicabilityCriteriaValue": null,
              "eventAssociatedID": null,
              "eventName": null,
              "defaultValue": null,
              "valueSeqID": 121,
              "valueID": 1,
              "valueType": null,
              
              "valueName": " ",
              "displayValue": null,
              "datasetVersion": "1.0",
              "displaySequence": "2",
              "validationSeqID": 102,
              "validationID": 2,
              "validationName": [
                "Required"
                
              ],
              "typeSeqID": 104,
              "typeID": 4,
              "typeName": "Location",
              "controlTypeID": 1,
              "controlName": "Text_Box",
              "url": null,
              "appearUI": "Y",
              "editable": "Y"
            },
            {
              "widgetId": "101",
              "widgetName": "Location Address",
              "widgetDescription": null,
              "correspondingEntityType": "Location Address",
              "datasetId": "1007",
              "datasetName": "TERRITORY",
              "parentDatasetId": null,
              "additionalInfo": "territory",
              "mappingId": "10005",
              "systemRefId": "Territory",
              "entityTypeId": "1",
              "entityType": "Widget",
              "applicabilityID": null,
              "applicabilityCriteria": null,
              "applicabilityCriteriaValue": null,
              "eventAssociatedID": null,
              "eventName": null,
              "defaultValue": null,
              "valueSeqID": 121,
              "valueID": 1,
              "valueType": null,
              "valueName": [
                {"caption":"01","value":"01xxx"},
                {"caption":"0X","value":"01xxx"},
                {"caption":"1X","value":"01xxx"},
                {"caption":"2X","value":"01xxx"}
                
              ],
              "displayValue": null,
              "datasetVersion": "1.0",
              "displaySequence": "3",
              "validationSeqID": 102,
              "validationID": 2,
              "validationName": [
                "Required",
                "Alphanumeric"
              ],
              "typeSeqID": 104,
              "typeID": 4,
              "typeName": "Location",
              "controlTypeID": 1,
              "controlName": "Drop_Down",
              "url": null,
              "appearUI": "Y",
              "editable": "Y"
            },
            {
              "widgetId": "101",
              "widgetName": "Location Address",
              "widgetDescription": null,
              "correspondingEntityType": "Location Address",
              "datasetId": "1007",
              "datasetName": "PROTECTION CLASS",
              "parentDatasetId": null,
              "additionalInfo": "Protection Class",
              "mappingId": "10005",
              "systemRefId": "risk.Protection_Class",
              "entityTypeId": "1",
              "entityType": "Widget",
              "applicabilityID": null,
              "applicabilityCriteria": null,
              "applicabilityCriteriaValue": null,
              "eventAssociatedID": null,
              "eventName": null,
              "defaultValue": null,
              "valueSeqID": 121,
              "valueID": 1,
              "valueType": null,
              "valueName": [
                {"caption":"001","value":"01xxx"},
                {"caption":"005","value":"01xxx"},
                {"caption":"006","value":"01xxx"},
                {"caption":"004","value":"01xxx"}
                              ],
              "displayValue": null,
              "datasetVersion": "1.0",
              "displaySequence": "3",
              "validationSeqID": 102,
              "validationID": 2,
              "validationName": [
                "Required",
                "Alphanumeric"
              ],
              "typeSeqID": 104,
              "typeID": 4,
              "typeName": "Location",
              "controlTypeID": 1,
              "controlName": "Drop_Down",
              "url": null,
              "appearUI": "Y",
              "editable": "Y"
            },
            {
              "widgetId": "101",
              "widgetName": "Location Address",
              "widgetDescription": null,
              "correspondingEntityType": "Location Address",
              "datasetId": "1007",
              "datasetName": "DISTANCE TO COAST",
              "parentDatasetId": null,
              "additionalInfo": "Distance to Coast",
              "mappingId": "10005",
              "systemRefId": "Distance_to_Coast",
              "entityTypeId": "1",
              "entityType": "Widget",
              "applicabilityID": null,
              "applicabilityCriteria": null,
              "applicabilityCriteriaValue": null,
              "eventAssociatedID": null,
              "eventName": null,
              "defaultValue": null,
              "valueSeqID": 121,
              "valueID": 1,
              "valueType": null,
             
              "valueName": " ",
              "displayValue": null,
              "datasetVersion": "1.0",
              "displaySequence": "3",
              "validationSeqID": 102,
              "validationID": 2,
              "validationName": [
                "Required",
                "Numeric"
              ],
              "typeSeqID": 104,
              "typeID": 4,
              "typeName": "Location",
              "controlTypeID": 1,
              "controlName": "Text_Box",
              "url": null,
              "appearUI": "Y",
              "editable": "Y"
            }
          ]
        
      }
      
    ]
  
}
