[
	{
		"datasetName": "Inland Marine Coverages",
		"subGroups": [
			{
				"datasetID": 5972,
				"datasetName": "Debris Removal",
				"parentDatasetID": null,
				"additionalInfo": null,
				"mappingID": 7276411,
				"systemRefID": null,
				"entityType": "Coverage",
				"applicabilityCriteria": "Product",
				"applicabilityCriteriaValue": "6016",
				"defaultValue": "1",
				"datasetVersion": "1",
				"coverageDisplaySequence": 3,
				"valueName": [
					"25000"
				],
				"valueType": "D",
				"displayValue": [
					"$25,000"
				],
				"createdOn": "2018-03-22T00:00:00+05:30",
				"createdBy": null,
				"typeName": "Coverage",
				"validationName": [
					"Required"
				],
				"controlName": "Placeholder_Text",
				"eventName": [
					"RULE:BRVALIDATEAPPLICATIONINTEREST"
				],
				"url": null,
				"groupDisplaySequence": 8,
				"coverageId": 38,
				"coverageName": "Debris Removal",
				"frequentlyAddedCov": "N",
				"mandatoryCoverage": "Y",
				"rules": null,
				"appearUI": "Y",
				"editable": "Y",
				"effectiveDate": null,
				"effectiveEndDate": null,
				"components": [
					{
						"compCreatedBy": null,
						"compParentDatasetID": null,
						"compSystemRefID": null,
						"compParentRiskReference": null,
						"compDisplaySequence": 3,
						"compURL": null,
						"compCreatedOn": "2018-03-22T00:00:00+05:30",
						"compControlName": "Placeholder_Text",
						"compLevelName": "Policy",
						"compAppearUI": "N",
						"compTypeName": "Coverage",
						"compDefaultValue": "1",
						"compValidationName": [
							"Required"
						],
						"compApplicabilityCriteria": "Product",
						"compDatasetID": 5972,
						"compEffectiveEndDate": null,
						"componentName": "Basic BOP",
						"compEntityType": "Coverage",
						"compShowAsHelp": "N",
						"compDisplayValue": [
							"$25,000"
						],
						"compEffectiveDate": null,
						"compDatasetName": "Debris Removal",
						"compValueName": [
							"25000"
						],
						"compEventName": [
							"RULE:BRVALIDATEAPPLICATIONINTEREST"
						],
						"compMappingID": "7276412",
						"compApplicabilityCriteriaValue": "6016",
						"compAdditionalInfo": null,
						"compDatasetVersion": "1",
						"compEditable": "Y",
						"compValueType": "D"
					},
					{
						"compCreatedBy": null,
						"compParentDatasetID": null,
						"compSystemRefID": null,
						"compParentRiskReference": null,
						"compDisplaySequence": 3,
						"compURL": null,
						"compCreatedOn": "2018-03-22T00:00:00+05:30",
						"compControlName": "Placeholder_Text",
						"compLevelName": "Policy",
						"compAppearUI": "Y",
						"compTypeName": "Coverage",
						"compDefaultValue": "1",
						"compValidationName": [
							"Required"
						],
						"compApplicabilityCriteria": "Product",
						"compDatasetID": 5972,
						"compEffectiveEndDate": null,
						"componentName": "Basic BOP_Business Link_for Display",
						"compEntityType": "Coverage",
						"compShowAsHelp": "N",
						"compDisplayValue": [
							"$25,000"
						],
						"compEffectiveDate": null,
						"compDatasetName": "Debris Removal",
						"compValueName": [
							"25000"
						],
						"compEventName": [
							"RULE:BRVALIDATEAPPLICATIONINTEREST"
						],
						"compMappingID": "7276411",
						"compApplicabilityCriteriaValue": "6016",
						"compAdditionalInfo": null,
						"compDatasetVersion": "1",
						"compEditable": "Y",
						"compValueType": "D"
					}
				]
			},
			{
				"datasetID": 5976,
				"datasetName": "Personal Properties Off Premises and in Transit",
				"parentDatasetID": null,
				"additionalInfo": null,
				"mappingID": 7276418,
				"systemRefID": null,
				"entityType": "Coverage",
				"applicabilityCriteria": "Product",
				"applicabilityCriteriaValue": "6016",
				"defaultValue": "1",
				"datasetVersion": "1",
				"coverageDisplaySequence": 7,
				"valueName": [
					"25000"
				],
				"valueType": "D",
				"displayValue": [
					"$25,000"
				],
				"createdOn": "2017-01-01T00:00:00+05:30",
				"createdBy": null,
				"typeName": "Coverage",
				"validationName": [
					"Required"
				],
				"controlName": "Placeholder_Text",
				"eventName": [
					"RULE:BRVALIDATEAPPLICATIONINTEREST"
				],
				"url": null,
				"groupDisplaySequence": 8,
				"coverageId": 43,
				"coverageName": "Personal Property Off Premises and in Transit",
				"frequentlyAddedCov": "N",
				"mandatoryCoverage": "Y",
				"rules": null,
				"appearUI": "Y",
				"editable": "N",
				"effectiveDate": null,
				"effectiveEndDate": null,
				"components": [
					{
						"compCreatedBy": null,
						"compParentDatasetID": null,
						"compSystemRefID": null,
						"compParentRiskReference": null,
						"compDisplaySequence": 7,
						"compURL": null,
						"compCreatedOn": "2017-01-01T00:00:00+05:30",
						"compControlName": "Placeholder_Text",
						"compLevelName": "Policy",
						"compAppearUI": "N",
						"compTypeName": "Coverage",
						"compDefaultValue": "1",
						"compValidationName": [
							"Required"
						],
						"compApplicabilityCriteria": "Product",
						"compDatasetID": 5976,
						"compEffectiveEndDate": null,
						"componentName": "Basic BOP_Business Link_for Display",
						"compEntityType": "Coverage",
						"compShowAsHelp": "N",
						"compDisplayValue": [
							"$25,000"
						],
						"compEffectiveDate": null,
						"compDatasetName": "Personal Properties Off Premises and in Transit",
						"compValueName": [
							"25000"
						],
						"compEventName": [
							"RULE:BRVALIDATEAPPLICATIONINTEREST"
						],
						"compMappingID": "7276418",
						"compApplicabilityCriteriaValue": "6016",
						"compAdditionalInfo": null,
						"compDatasetVersion": "1",
						"compEditable": "N",
						"compValueType": "D"
					},
					{
						"compCreatedBy": null,
						"compParentDatasetID": null,
						"compSystemRefID": null,
						"compParentRiskReference": null,
						"compDisplaySequence": 7,
						"compURL": null,
						"compCreatedOn": "2017-01-01T00:00:00+05:30",
						"compControlName": "Placeholder_Text",
						"compLevelName": "Policy",
						"compAppearUI": "Y",
						"compTypeName": "Coverage",
						"compDefaultValue": "1",
						"compValidationName": [
							"Required"
						],
						"compApplicabilityCriteria": "Product",
						"compDatasetID": 5976,
						"compEffectiveEndDate": null,
						"componentName": "Basic BOP",
						"compEntityType": "Coverage",
						"compShowAsHelp": "N",
						"compDisplayValue": [
							"$25,0000000000000000"
						],
						"compEffectiveDate": null,
						"compDatasetName": "Personal Properties Off Premises and in Transit",
						"compValueName": [
							"25000"
						],
						"compEventName": [
							"RULE:BRVALIDATEAPPLICATIONINTEREST"
						],
						"compMappingID": "7276419",
						"compApplicabilityCriteriaValue": "6016",
						"compAdditionalInfo": null,
						"compDatasetVersion": "1",
						"compEditable": "N",
						"compValueType": "D"
					}
				]
			}
		]
	},
	{
		"datasetName": "Extension Endorsement",
		"subGroups": [
			{
				"datasetID": 5970,
				"datasetName": "Accounts Receivable",
				"parentDatasetID": null,
				"additionalInfo": null,
				"mappingID": 7276413,
				"systemRefID": null,
				"entityType": "Risk",
				"applicabilityCriteria": "Product",
				"applicabilityCriteriaValue": "6016",
				"defaultValue": "1",
				"datasetVersion": "1",
				"coverageDisplaySequence": 1,
				"valueName": [
					"25000"
				],
				"valueType": "D",
				"displayValue": [
					"$25,000"
				],
				"createdOn": "2018-03-22T00:00:00+05:30",
				"createdBy": null,
				"typeName": "Coverage",
				"validationName": [
					"Required"
				],
				"controlName": "Placeholder_Text",
				"eventName": [
					"RULE:BRVALIDATEAPPLICATIONINTEREST"
				],
				"url": null,
				"groupDisplaySequence": 3,
				"coverageId": 6,
				"coverageName": "Extension Endorsement",
				"frequentlyAddedCov": "N",
				"mandatoryCoverage": "Y",
				"rules": null,
				"appearUI": "N",
				"editable": "Y",
				"effectiveDate": null,
				"effectiveEndDate": null,
				"components": [
					{
						"compCreatedBy": null,
						"compParentDatasetID": null,
						"compSystemRefID": null,
						"compParentRiskReference": 3,
						"compDisplaySequence": 1,
						"compURL": null,
						"compCreatedOn": "2018-03-22T00:00:00+05:30",
						"compControlName": "Placeholder_Text",
						"compLevelName": "On premises",
						"compAppearUI": "Y",
						"compTypeName": "Coverage",
						"compDefaultValue": "1",
						"compValidationName": [
							"Required"
						],
						"compApplicabilityCriteria": "Product",
						"compDatasetID": 5970,
						"compEffectiveEndDate": null,
						"componentName": "Basic BOP_Business Link_for Display",
						"compEntityType": "Risk",
						"compShowAsHelp": "N",
						"compDisplayValue": [
							"$25,000"
						],
						"compEffectiveDate": null,
						"compDatasetName": "Accounts Receivable",
						"compValueName": [
							"25000"
						],
						"compEventName": [
							"RULE:BRVALIDATEAPPLICATIONINTEREST"
						],
						"compMappingID": "7276413",
						"compApplicabilityCriteriaValue": "6016",
						"compAdditionalInfo": null,
						"compDatasetVersion": "1",
						"compEditable": "Y",
						"compValueType": "D"
					},
					{
						"compCreatedBy": null,
						"compParentDatasetID": null,
						"compSystemRefID": null,
						"compParentRiskReference": 3,
						"compDisplaySequence": 1,
						"compURL": null,
						"compCreatedOn": "2018-03-22T00:00:00+05:30",
						"compControlName": "Placeholder_Text",
						"compLevelName": "On premises",
						"compAppearUI": "Y",
						"compTypeName": "Coverage",
						"compDefaultValue": "1",
						"compValidationName": [
							"Required"
						],
						"compApplicabilityCriteria": "Product",
						"compDatasetID": 5970,
						"compEffectiveEndDate": null,
						"componentName": "Basic BOP",
						"compEntityType": "Risk",
						"compShowAsHelp": "Y",
						"compDisplayValue": [
							"Coverage Form includes $10,000"
						],
						"compEffectiveDate": null,
						"compDatasetName": "Accounts Receivable",
						"compValueName": [
							"Coverage Form includes 10000"
						],
						"compEventName": [
							"RULE:BRVALIDATEAPPLICATIONINTEREST"
						],
						"compMappingID": "7276415",
						"compApplicabilityCriteriaValue": "6016",
						"compAdditionalInfo": null,
						"compDatasetVersion": "1",
						"compEditable": "Y",
						"compValueType": "D"
					},
					{
						"compCreatedBy": null,
						"compParentDatasetID": null,
						"compSystemRefID": null,
						"compParentRiskReference": 3,
						"compDisplaySequence": 1,
						"compURL": null,
						"compCreatedOn": "2018-03-22T00:00:00+05:30",
						"compControlName": "Placeholder_Text",
						"compLevelName": "On premises",
						"compAppearUI": "Y",
						"compTypeName": "Coverage",
						"compDefaultValue": "1",
						"compValidationName": [
							"Required"
						],
						"compApplicabilityCriteria": "Product",
						"compDatasetID": 5970,
						"compEffectiveEndDate": null,
						"componentName": "Business Link",
						"compEntityType": "Risk",
						"compShowAsHelp": "Y",
						"compDisplayValue": [
							"Business Link includes $15,000 Business Link includes $15,000"
						],
						"compEffectiveDate": null,
						"compDatasetName": "Accounts Receivable",
						"compValueName": [
							"Business Link includes 15000"
						],
						"compEventName": [
							"RULE:BRVALIDATEAPPLICATIONINTEREST"
						],
						"compMappingID": "7276417",
						"compApplicabilityCriteriaValue": "6016",
						"compAdditionalInfo": null,
						"compDatasetVersion": "1",
						"compEditable": "Y",
						"compValueType": "D"
					}
				]
			},
			{
				"datasetID": 1111141,
				"datasetName": "Extension Endorsement",
				"parentDatasetID": null,
				"additionalInfo": null,
				"mappingID": 7276468,
				"systemRefID": null,
				"entityType": "Coverage",
				"applicabilityCriteria": "Product",
				"applicabilityCriteriaValue": "6016",
				"defaultValue": "1",
				"datasetVersion": "1",
				"coverageDisplaySequence": 3,
				"valueName": [
					"Included"
				],
				"valueType": "D",
				"displayValue": [
					"Included"
				],
				"createdOn": "2018-03-29T00:00:00+05:30",
				"createdBy": null,
				"typeName": "Coverage",
				"validationName": [
					"Required"
				],
				"controlName": "Placeholder_Text",
				"eventName": [
					"RULE:BRVALIDATEAPPLICATIONINTEREST"
				],
				"url": null,
				"groupDisplaySequence": 3,
				"coverageId": 6,
				"coverageName": "Extension Endorsement",
				"frequentlyAddedCov": "N",
				"mandatoryCoverage": "Y",
				"rules": null,
				"appearUI": "Y",
				"editable": "N",
				"effectiveDate": null,
				"effectiveEndDate": null,
				"components": [
					{
						"compCreatedBy": null,
						"compParentDatasetID": null,
						"compSystemRefID": null,
						"compParentRiskReference": null,
						"compDisplaySequence": 3,
						"compURL": null,
						"compCreatedOn": "2018-03-29T00:00:00+05:30",
						"compControlName": "Placeholder_Text",
						"compLevelName": "Policy",
						"compAppearUI": "Y",
						"compTypeName": "Coverage",
						"compDefaultValue": "1",
						"compValidationName": [
							"Required"
						],
						"compApplicabilityCriteria": "Product",
						"compDatasetID": 1111141,
						"compEffectiveEndDate": null,
						"componentName": null,
						"compEntityType": "Coverage",
						"compShowAsHelp": "N",
						"compDisplayValue": [
							"Included"
						],
						"compEffectiveDate": null,
						"compDatasetName": "Extension Endorsement",
						"compValueName": [
							"Included"
						],
						"compEventName": [
							"RULE:BRVALIDATEAPPLICATIONINTEREST"
						],
						"compMappingID": "7276468",
						"compApplicabilityCriteriaValue": "6016",
						"compAdditionalInfo": null,
						"compDatasetVersion": "1",
						"compEditable": "N",
						"compValueType": "D"
					}
				]
			},
			{
				"datasetID": 5977,
				"datasetName": "Valuable Papers and Records Valuable Papers and Records",
				"parentDatasetID": null,
				"additionalInfo": null,
				"mappingID": 7276404,
				"systemRefID": null,
				"entityType": "Risk",
				"applicabilityCriteria": "Product",
				"applicabilityCriteriaValue": "6016",
				"defaultValue": "1",
				"datasetVersion": "1",
				"coverageDisplaySequence": 8,
				"valueName": [
					"25000"
				],
				"valueType": "D",
				"displayValue": [
					"$25,000"
				],
				"createdOn": "2018-03-21T00:00:00+05:30",
				"createdBy": null,
				"typeName": "Coverage",
				"validationName": [
					"Required"
				],
				"controlName": "Placeholder_Text",
				"eventName": [
					"RULE:BRVALIDATEAPPLICATIONINTEREST"
				],
				"url": null,
				"groupDisplaySequence": 3,
				"coverageId": 6,
				"coverageName": "Extension Endorsement",
				"frequentlyAddedCov": "N",
				"mandatoryCoverage": "Y",
				"rules": null,
				"appearUI": "Y",
				"editable": "Y",
				"effectiveDate": null,
				"effectiveEndDate": null,
				"components": [
					{
						"compCreatedBy": null,
						"compParentDatasetID": null,
						"compSystemRefID": null,
						"compParentRiskReference": 3,
						"compDisplaySequence": 8,
						"compURL": null,
						"compCreatedOn": "2018-03-21T00:00:00+05:30",
						"compControlName": "Placeholder_Text",
						"compLevelName": "On premises",
						"compAppearUI": "Y",
						"compTypeName": "Coverage",
						"compDefaultValue": "1",
						"compValidationName": [
							"Required"
						],
						"compApplicabilityCriteria": "Product",
						"compDatasetID": 5977,
						"compEffectiveEndDate": null,
						"componentName": "Basic BOP_Business Link_for Display",
						"compEntityType": "Risk",
						"compShowAsHelp": "N",
						"compDisplayValue": [
							"$25,000"
						],
						"compEffectiveDate": null,
						"compDatasetName": "Valuable Papers and Records",
						"compValueName": [
							"25000"
						],
						"compEventName": [
							"RULE:BRVALIDATEAPPLICATIONINTEREST"
						],
						"compMappingID": "7276404",
						"compApplicabilityCriteriaValue": "6016",
						"compAdditionalInfo": null,
						"compDatasetVersion": "1",
						"compEditable": "Y",
						"compValueType": "D"
					},
					{
						"compCreatedBy": null,
						"compParentDatasetID": null,
						"compSystemRefID": null,
						"compParentRiskReference": 3,
						"compDisplaySequence": 8,
						"compURL": null,
						"compCreatedOn": "2018-03-21T00:00:00+05:30",
						"compControlName": "Placeholder_Text",
						"compLevelName": "On premises",
						"compAppearUI": "Y",
						"compTypeName": "Coverage",
						"compDefaultValue": "1",
						"compValidationName": [
							"Required"
						],
						"compApplicabilityCriteria": "Product",
						"compDatasetID": 5977,
						"compEffectiveEndDate": null,
						"componentName": "Basic BOP",
						"compEntityType": "Risk",
						"compShowAsHelp": "Y",
						"compDisplayValue": [
							"Coverage Form includes $10,000"
						],
						"compEffectiveDate": null,
						"compDatasetName": "Valuable Papers and Records",
						"compValueName": [
							"Coverage Form includes 10000"
						],
						"compEventName": [
							"RULE:BRVALIDATEAPPLICATIONINTEREST"
						],
						"compMappingID": "7276406",
						"compApplicabilityCriteriaValue": "6016",
						"compAdditionalInfo": null,
						"compDatasetVersion": "1",
						"compEditable": "Y",
						"compValueType": "D"
					},
					{
						"compCreatedBy": null,
						"compParentDatasetID": null,
						"compSystemRefID": null,
						"compParentRiskReference": 3,
						"compDisplaySequence": 8,
						"compURL": null,
						"compCreatedOn": "2018-03-21T00:00:00+05:30",
						"compControlName": "Placeholder_Text",
						"compLevelName": "On premises",
						"compAppearUI": "Y",
						"compTypeName": "Coverage",
						"compDefaultValue": "1",
						"compValidationName": [
							"Required"
						],
						"compApplicabilityCriteria": "Product",
						"compDatasetID": 5977,
						"compEffectiveEndDate": null,
						"componentName": "Business Link",
						"compEntityType": "Risk",
						"compShowAsHelp": "Y",
						"compDisplayValue": [
							"Business Link includes $15,000"
						],
						"compEffectiveDate": null,
						"compDatasetName": "Valuable Papers and Records",
						"compValueName": [
							"Business Link includes 15000"
						],
						"compEventName": [
							"RULE:BRVALIDATEAPPLICATIONINTEREST"
						],
						"compMappingID": "7276408",
						"compApplicabilityCriteriaValue": "6016",
						"compAdditionalInfo": null,
						"compDatasetVersion": "1",
						"compEditable": "Y",
						"compValueType": "D"
					}
				]
			}
		]
	},
	{
		"datasetName": "Policy Coverages",
		"subGroups": [
			{
				"datasetID": 5948,
				"datasetName": "Exclude Products - Completed Operations Hazard?",
				"parentDatasetID": null,
				"additionalInfo": null,
				"mappingID": 7276451,
				"systemRefID": null,
				"entityType": "Coverage",
				"applicabilityCriteria": "Product",
				"applicabilityCriteriaValue": "6016",
				"defaultValue": "1",
				"datasetVersion": "1",
				"coverageDisplaySequence": 8,
				"valueName": [
					"2,000,000"
				],
				"valueType": "D",
				"displayValue": [
					"$2,00,0000"
				],
				"createdOn": "2018-03-22T00:00:00+05:30",
				"createdBy": null,
				"typeName": "Coverage",
				"validationName": [
					"Required"
				],
				"controlName": "Radio_Button",
				"eventName": [
					"RULE:BRVALIDATEAPPLICATIONINTEREST"
				],
				"url": null,
				"groupDisplaySequence": 4,
				"coverageId": 12,
				"coverageName": "Exclude Products - Completed Operations Hazard?",
				"frequentlyAddedCov": "N",
				"mandatoryCoverage": "Y",
				"rules": null,
				"appearUI": "Y",
				"editable": "N",
				"effectiveDate": null,
				"effectiveEndDate": null,
				"components": [
					{
						"compCreatedBy": null,
						"compParentDatasetID": null,
						"compSystemRefID": null,
						"compParentRiskReference": null,
						"compDisplaySequence": 8,
						"compURL": null,
						"compCreatedOn": "2018-03-22T00:00:00+05:30",
						"compControlName": "Radio_Button",
						"compLevelName": "Policy",
						"compAppearUI": "Y",
						"compTypeName": "Coverage",
						"compDefaultValue": "1",
						"compValidationName": [
							"Required"
						],
						"compApplicabilityCriteria": "Product",
						"compDatasetID": 5948,
						"compEffectiveEndDate": null,
						"componentName": "Basic BOP_Business Link_for Display",
						"compEntityType": "Coverage",
						"compShowAsHelp": "N",
						"compDisplayValue": [
							"$2,00,0000"
						],
						"compEffectiveDate": null,
						"compDatasetName": "Exclude Products - Completed Operations Hazard?",
						"compValueName": [
							"2,000,000"
						],
						"compEventName": [
							"RULE:BRVALIDATEAPPLICATIONINTEREST"
						],
						"compMappingID": "7276451",
						"compApplicabilityCriteriaValue": "6016",
						"compAdditionalInfo": null,
						"compDatasetVersion": "1",
						"compEditable": "N",
						"compValueType": "D"
					}
				]
			},
			{
				"datasetID": 5949,
				"datasetName": "Exclude Personal & Advertising Injury?",
				"parentDatasetID": null,
				"additionalInfo": null,
				"mappingID": 7276455,
				"systemRefID": null,
				"entityType": "Coverage",
				"applicabilityCriteria": "Product",
				"applicabilityCriteriaValue": "6016",
				"defaultValue": "1",
				"datasetVersion": "1",
				"coverageDisplaySequence": 9,
				"valueName": [
					"0"
				],
				"valueType": "D",
				"displayValue": [
					"$0"
				],
				"createdOn": "2018-03-22T00:00:00+05:30",
				"createdBy": null,
				"typeName": "Coverage",
				"validationName": [
					"Required"
				],
				"controlName": "Radio_Button",
				"eventName": [
					"RULE:BRVALIDATEAPPLICATIONINTEREST"
				],
				"url": null,
				"groupDisplaySequence": 4,
				"coverageId": 13,
				"coverageName": "Exclude Personal & Advertising Injury?",
				"frequentlyAddedCov": "N",
				"mandatoryCoverage": "Y",
				"rules": null,
				"appearUI": "Y",
				"editable": "N",
				"effectiveDate": null,
				"effectiveEndDate": null,
				"components": [
					{
						"compCreatedBy": null,
						"compParentDatasetID": null,
						"compSystemRefID": null,
						"compParentRiskReference": null,
						"compDisplaySequence": 9,
						"compURL": null,
						"compCreatedOn": "2018-03-22T00:00:00+05:30",
						"compControlName": "Radio_Button",
						"compLevelName": "Policy",
						"compAppearUI": "Y",
						"compTypeName": "Coverage",
						"compDefaultValue": "1",
						"compValidationName": [
							"Required"
						],
						"compApplicabilityCriteria": "Product",
						"compDatasetID": 5949,
						"compEffectiveEndDate": null,
						"componentName": "Basic BOP_Business Link_for Display",
						"compEntityType": "Coverage",
						"compShowAsHelp": "N",
						"compDisplayValue": [
							"$0"
						],
						"compEffectiveDate": null,
						"compDatasetName": "Exclude Personal & Advertising Injury?",
						"compValueName": [
							"0"
						],
						"compEventName": [
							"RULE:BRVALIDATEAPPLICATIONINTEREST"
						],
						"compMappingID": "7276455",
						"compApplicabilityCriteriaValue": "6016",
						"compAdditionalInfo": null,
						"compDatasetVersion": "1",
						"compEditable": "N",
						"compValueType": "D"
					}
				]
			},
			{
				"datasetID": 1111192,
				"datasetName": "Property Deductible",
				"parentDatasetID": null,
				"additionalInfo": null,
				"mappingID": 7276449,
				"systemRefID": null,
				"entityType": "Coverage",
				"applicabilityCriteria": "Product",
				"applicabilityCriteriaValue": "6016",
				"defaultValue": "1",
				"datasetVersion": "1",
				"coverageDisplaySequence": 4,
				"valueName": [
					"1000"
				],
				"valueType": "D",
				"displayValue": [
					"$1000"
				],
				"createdOn": "2018-03-22T00:00:00+05:30",
				"createdBy": null,
				"typeName": "Coverage",
				"validationName": [
					"Required"
				],
				"controlName": "Drop_Down",
				"eventName": [
					"RULE:BRVALIDATEAPPLICATIONINTEREST"
				],
				"url": null,
				"groupDisplaySequence": 4,
				"coverageId": 1,
				"coverageName": "Property Deductible",
				"frequentlyAddedCov": "N",
				"mandatoryCoverage": "Y",
				"rules": null,
				"appearUI": "Y",
				"editable": "N",
				"effectiveDate": null,
				"effectiveEndDate": null,
				"components": [
					{
						"compCreatedBy": null,
						"compParentDatasetID": null,
						"compSystemRefID": null,
						"compParentRiskReference": null,
						"compDisplaySequence": 4,
						"compURL": null,
						"compCreatedOn": "2018-03-22T00:00:00+05:30",
						"compControlName": "Drop_Down",
						"compLevelName": "Policy",
						"compAppearUI": "Y",
						"compTypeName": "Coverage",
						"compDefaultValue": "1",
						"compValidationName": [
							"Required"
						],
						"compApplicabilityCriteria": "Product",
						"compDatasetID": 1111192,
						"compEffectiveEndDate": null,
						"componentName": "Basic BOP_Business Link_for Display",
						"compEntityType": "Coverage",
						"compShowAsHelp": "N",
						"compDisplayValue": [
							"$1000"
						],
						"compEffectiveDate": null,
						"compDatasetName": "Property Deductible",
						"compValueName": [
							"1000"
						],
						"compEventName": [
							"RULE:BRVALIDATEAPPLICATIONINTEREST"
						],
						"compMappingID": "7276449",
						"compApplicabilityCriteriaValue": "6016",
						"compAdditionalInfo": null,
						"compDatasetVersion": "1",
						"compEditable": "N",
						"compValueType": "D"
					}
				]
			},
			{
				"datasetID": 5971,
				"datasetName": "Bailees Coverage",
				"parentDatasetID": null,
				"additionalInfo": null,
				"mappingID": 7276409,
				"systemRefID": null,
				"entityType": "Risk",
				"applicabilityCriteria": "Product",
				"applicabilityCriteriaValue": "6016",
				"defaultValue": "1",
				"datasetVersion": "1",
				"coverageDisplaySequence": 2,
				"valueName": [
					"5000",
					"10000"
				],
				"valueType": "D",
				"displayValue": [
					"$5,000",
					"$10,000"
				],
				"createdOn": "2018-03-21T00:00:00+05:30",
				"createdBy": null,
				"typeName": "Coverage",
				"validationName": [
					"Required"
				],
				"controlName": "Placeholder_Text",
				"eventName": [
					"RULE:BRVALIDATEAPPLICATIONINTEREST"
				],
				"url": null,
				"groupDisplaySequence": 4,
				"coverageId": 3,
				"coverageName": "General Aggregate Limit",
				"frequentlyAddedCov": "N",
				"mandatoryCoverage": "Y",
				"rules": null,
				"appearUI": "Y",
				"editable": "Y",
				"effectiveDate": null,
				"effectiveEndDate": null,
				"components": [
					{
						"compCreatedBy": null,
						"compParentDatasetID": null,
						"compSystemRefID": null,
						"compParentRiskReference": 2,
						"compDisplaySequence": 2,
						"compURL": null,
						"compCreatedOn": "2018-03-21T00:00:00+05:30",
						"compControlName": "Placeholder_Text",
						"compLevelName": "Building",
						"compAppearUI": "N",
						"compTypeName": "Coverage",
						"compDefaultValue": "1",
						"compValidationName": [
							"Required"
						],
						"compApplicabilityCriteria": "Product",
						"compDatasetID": 5971,
						"compEffectiveEndDate": null,
						"componentName": "Basic BOP",
						"compEntityType": "Risk",
						"compShowAsHelp": "N",
						"compDisplayValue": [
							"$100,000",
							"$10,000"
						],
						"compEffectiveDate": null,
						"compDatasetName": "Bailees Coverage",
						"compValueName": [
							"100000",
							"10000"
						],
						"compEventName": [
							"RULE:BRVALIDATEAPPLICATIONINTEREST"
						],
						"compMappingID": "7276410",
						"compApplicabilityCriteriaValue": "6016",
						"compAdditionalInfo": null,
						"compDatasetVersion": "1",
						"compEditable": "Y",
						"compValueType": "D"
					},
					{
						"compCreatedBy": null,
						"compParentDatasetID": null,
						"compSystemRefID": null,
						"compParentRiskReference": 2,
						"compDisplaySequence": 2,
						"compURL": null,
						"compCreatedOn": "2018-03-21T00:00:00+05:30",
						"compControlName": "Placeholder_Text",
						"compLevelName": "Building",
						"compAppearUI": "Y",
						"compTypeName": "Coverage",
						"compDefaultValue": "1",
						"compValidationName": [
							"Required"
						],
						"compApplicabilityCriteria": "Product",
						"compDatasetID": 5971,
						"compEffectiveEndDate": null,
						"componentName": "Basic BOP_Business Link_for Display",
						"compEntityType": "Risk",
						"compShowAsHelp": "N",
						"compDisplayValue": [
							"$5,000",
							"$10,000"
						],
						"compEffectiveDate": null,
						"compDatasetName": "Bailees Coverage",
						"compValueName": [
							"5000",
							"10000"
						],
						"compEventName": [
							"RULE:BRVALIDATEAPPLICATIONINTEREST"
						],
						"compMappingID": "7276409",
						"compApplicabilityCriteriaValue": "6016",
						"compAdditionalInfo": null,
						"compDatasetVersion": "1",
						"compEditable": "Y",
						"compValueType": "D"
					}
				]
			},
			{
				"datasetID": 5973,
				"datasetName": "Electronic Data",
				"parentDatasetID": null,
				"additionalInfo": null,
				"mappingID": 7276424,
				"systemRefID": null,
				"entityType": "Risk",
				"applicabilityCriteria": "Product",
				"applicabilityCriteriaValue": "6016",
				"defaultValue": "1",
				"datasetVersion": "1",
				"coverageDisplaySequence": 4,
				"valueName": [
					"Included"
				],
				"valueType": "D",
				"displayValue": [
					"Included"
				],
				"createdOn": "2018-03-22T00:00:00+05:30",
				"createdBy": null,
				"typeName": "Coverage",
				"validationName": [
					"Required"
				],
				"controlName": "Placeholder_Text",
				"eventName": [
					"RULE:BRVALIDATEAPPLICATIONINTEREST"
				],
				"url": null,
				"groupDisplaySequence": 4,
				"coverageId": 3,
				"coverageName": "General Aggregate Limit",
				"frequentlyAddedCov": "N",
				"mandatoryCoverage": "Y",
				"rules": null,
				"appearUI": "Y",
				"editable": "N",
				"effectiveDate": null,
				"effectiveEndDate": null,
				"components": [
					{
						"compCreatedBy": null,
						"compParentDatasetID": null,
						"compSystemRefID": null,
						"compParentRiskReference": 2,
						"compDisplaySequence": 4,
						"compURL": null,
						"compCreatedOn": "2018-03-22T00:00:00+05:30",
						"compControlName": "Placeholder_Text",
						"compLevelName": "Building",
						"compAppearUI": "N",
						"compTypeName": "Coverage",
						"compDefaultValue": "1",
						"compValidationName": [
							"Required"
						],
						"compApplicabilityCriteria": "Product",
						"compDatasetID": 5973,
						"compEffectiveEndDate": null,
						"componentName": "Basic BOP",
						"compEntityType": "Risk",
						"compShowAsHelp": "N",
						"compDisplayValue": [
							"$10,000"
						],
						"compEffectiveDate": null,
						"compDatasetName": "Electronic Data",
						"compValueName": [
							"10000"
						],
						"compEventName": [
							"RULE:BRVALIDATEAPPLICATIONINTEREST"
						],
						"compMappingID": "7276425",
						"compApplicabilityCriteriaValue": "6016",
						"compAdditionalInfo": null,
						"compDatasetVersion": "1",
						"compEditable": "N",
						"compValueType": "D"
					},
					{
						"compCreatedBy": null,
						"compParentDatasetID": null,
						"compSystemRefID": null,
						"compParentRiskReference": 2,
						"compDisplaySequence": 4,
						"compURL": null,
						"compCreatedOn": "2018-03-22T00:00:00+05:30",
						"compControlName": "Placeholder_Text",
						"compLevelName": "Building",
						"compAppearUI": "Y",
						"compTypeName": "Coverage",
						"compDefaultValue": "1",
						"compValidationName": [
							"Required"
						],
						"compApplicabilityCriteria": "Product",
						"compDatasetID": 5973,
						"compEffectiveEndDate": null,
						"componentName": "Basic BOP_Business Link_for Display",
						"compEntityType": "Risk",
						"compShowAsHelp": "N",
						"compDisplayValue": [
							"Included"
						],
						"compEffectiveDate": null,
						"compDatasetName": "Electronic Data",
						"compValueName": [
							"Included"
						],
						"compEventName": [
							"RULE:BRVALIDATEAPPLICATIONINTEREST"
						],
						"compMappingID": "7276424",
						"compApplicabilityCriteriaValue": "6016",
						"compAdditionalInfo": null,
						"compDatasetVersion": "1",
						"compEditable": "N",
						"compValueType": "D"
					}
				]
			},
			{
				"datasetID": 5951,
				"datasetName": "Medical Payments Limit",
				"parentDatasetID": null,
				"additionalInfo": null,
				"mappingID": 7276453,
				"systemRefID": null,
				"entityType": "Coverage",
				"applicabilityCriteria": "Product",
				"applicabilityCriteriaValue": "6016",
				"defaultValue": "1",
				"datasetVersion": "1",
				"coverageDisplaySequence": 10,
				"valueName": [
					"10000"
				],
				"valueType": "D",
				"displayValue": [
					"$10000"
				],
				"createdOn": "2018-03-22T00:00:00+05:30",
				"createdBy": null,
				"typeName": "Coverage",
				"validationName": [
					"Required"
				],
				"controlName": "Text_Box",
				"eventName": [
					"RULE:BRVALIDATEAPPLICATIONINTEREST"
				],
				"url": null,
				"groupDisplaySequence": 4,
				"coverageId": 15,
				"coverageName": "Medical Payments Limit",
				"frequentlyAddedCov": "N",
				"mandatoryCoverage": "Y",
				"rules": null,
				"appearUI": "Y",
				"editable": "N",
				"effectiveDate": null,
				"effectiveEndDate": null,
				"components": [
					{
						"compCreatedBy": null,
						"compParentDatasetID": null,
						"compSystemRefID": null,
						"compParentRiskReference": null,
						"compDisplaySequence": 10,
						"compURL": null,
						"compCreatedOn": "2018-03-22T00:00:00+05:30",
						"compControlName": "Text_Box",
						"compLevelName": "Policy",
						"compAppearUI": "Y",
						"compTypeName": "Coverage",
						"compDefaultValue": "1",
						"compValidationName": [
							"Required"
						],
						"compApplicabilityCriteria": "Product",
						"compDatasetID": 5951,
						"compEffectiveEndDate": null,
						"componentName": "Basic BOP_Business Link_for Display",
						"compEntityType": "Coverage",
						"compShowAsHelp": "N",
						"compDisplayValue": [
							"$10000"
						],
						"compEffectiveDate": null,
						"compDatasetName": "Medical Payments Limit",
						"compValueName": [
							"10000"
						],
						"compEventName": [
							"RULE:BRVALIDATEAPPLICATIONINTEREST"
						],
						"compMappingID": "7276453",
						"compApplicabilityCriteriaValue": "6016",
						"compAdditionalInfo": null,
						"compDatasetVersion": "1",
						"compEditable": "N",
						"compValueType": "D"
					}
				]
			},
			{
				"datasetID": 8956,
				"datasetName": "Products Completed Operations Aggregate",
				"parentDatasetID": null,
				"additionalInfo": null,
				"mappingID": 7276454,
				"systemRefID": null,
				"entityType": "Coverage",
				"applicabilityCriteria": "Product",
				"applicabilityCriteriaValue": "6016",
				"defaultValue": "1",
				"datasetVersion": "1",
				"coverageDisplaySequence": 7,
				"valueName": [
					"2,000,000"
				],
				"valueType": "D",
				"displayValue": [
					"$2,000,000"
				],
				"createdOn": "2018-03-22T00:00:00+05:30",
				"createdBy": null,
				"typeName": "Coverage",
				"validationName": [
					"Required"
				],
				"controlName": "Text_Box",
				"eventName": [
					"RULE:BRVALIDATEAPPLICATIONINTEREST"
				],
				"url": null,
				"groupDisplaySequence": 4,
				"coverageId": 10,
				"coverageName": "Products Completed Operations Aggregate",
				"frequentlyAddedCov": "N",
				"mandatoryCoverage": "Y",
				"rules": null,
				"appearUI": "Y",
				"editable": "N",
				"effectiveDate": null,
				"effectiveEndDate": null,
				"components": [
					{
						"compCreatedBy": null,
						"compParentDatasetID": null,
						"compSystemRefID": null,
						"compParentRiskReference": null,
						"compDisplaySequence": 7,
						"compURL": null,
						"compCreatedOn": "2018-03-22T00:00:00+05:30",
						"compControlName": "Text_Box",
						"compLevelName": "Policy",
						"compAppearUI": "Y",
						"compTypeName": "Coverage",
						"compDefaultValue": "1",
						"compValidationName": [
							"Required"
						],
						"compApplicabilityCriteria": "Product",
						"compDatasetID": 8956,
						"compEffectiveEndDate": null,
						"componentName": "Basic BOP_Business Link_for Display",
						"compEntityType": "Coverage",
						"compShowAsHelp": "N",
						"compDisplayValue": [
							"$2,000,000"
						],
						"compEffectiveDate": null,
						"compDatasetName": "Products Completed Operations Aggregate",
						"compValueName": [
							"2,000,000"
						],
						"compEventName": [
							"RULE:BRVALIDATEAPPLICATIONINTEREST"
						],
						"compMappingID": "7276454",
						"compApplicabilityCriteriaValue": "6016",
						"compAdditionalInfo": null,
						"compDatasetVersion": "1",
						"compEditable": "N",
						"compValueType": "D"
					}
				]
			},
			{
				"datasetID": 5974,
				"datasetName": "Enhanced Computer Coverage",
				"parentDatasetID": null,
				"additionalInfo": null,
				"mappingID": 7276422,
				"systemRefID": null,
				"entityType": "Risk",
				"applicabilityCriteria": "Product",
				"applicabilityCriteriaValue": "6016",
				"defaultValue": "1",
				"datasetVersion": "1",
				"coverageDisplaySequence": 5,
				"valueName": [
					"Included"
				],
				"valueType": "D",
				"displayValue": [
					"Included"
				],
				"createdOn": "2018-03-22T00:00:00+05:30",
				"createdBy": null,
				"typeName": "Coverage",
				"validationName": [
					"Required"
				],
				"controlName": "Placeholder_Text",
				"eventName": [
					"RULE:BRVALIDATEAPPLICATIONINTEREST"
				],
				"url": null,
				"groupDisplaySequence": 4,
				"coverageId": 3,
				"coverageName": "General Aggregate Limit",
				"frequentlyAddedCov": "N",
				"mandatoryCoverage": "Y",
				"rules": null,
				"appearUI": "Y",
				"editable": "N",
				"effectiveDate": null,
				"effectiveEndDate": null,
				"components": [
					{
						"compCreatedBy": null,
						"compParentDatasetID": null,
						"compSystemRefID": null,
						"compParentRiskReference": 2,
						"compDisplaySequence": 5,
						"compURL": null,
						"compCreatedOn": "2018-03-22T00:00:00+05:30",
						"compControlName": "Placeholder_Text",
						"compLevelName": "Building",
						"compAppearUI": "Y",
						"compTypeName": "Coverage",
						"compDefaultValue": "1",
						"compValidationName": [
							"Required"
						],
						"compApplicabilityCriteria": "Product",
						"compDatasetID": 5974,
						"compEffectiveEndDate": null,
						"componentName": "Business Link",
						"compEntityType": "Risk",
						"compShowAsHelp": "Y",
						"compDisplayValue": [
							"$10,000 With Earthquake"
						],
						"compEffectiveDate": null,
						"compDatasetName": "Enhanced Computer Coverage",
						"compValueName": [
							"10000 With Earthquake"
						],
						"compEventName": [
							"RULE:BRVALIDATEAPPLICATIONINTEREST"
						],
						"compMappingID": "7276423",
						"compApplicabilityCriteriaValue": "6016",
						"compAdditionalInfo": null,
						"compDatasetVersion": "1",
						"compEditable": "N",
						"compValueType": "D"
					},
					{
						"compCreatedBy": null,
						"compParentDatasetID": null,
						"compSystemRefID": null,
						"compParentRiskReference": 2,
						"compDisplaySequence": 5,
						"compURL": null,
						"compCreatedOn": "2018-03-22T00:00:00+05:30",
						"compControlName": "Placeholder_Text",
						"compLevelName": "Building",
						"compAppearUI": "Y",
						"compTypeName": "Coverage",
						"compDefaultValue": "1",
						"compValidationName": [
							"Required"
						],
						"compApplicabilityCriteria": "Product",
						"compDatasetID": 5974,
						"compEffectiveEndDate": null,
						"componentName": "Basic BOP_Business Link_for Display",
						"compEntityType": "Risk",
						"compShowAsHelp": "N",
						"compDisplayValue": [
							"Included"
						],
						"compEffectiveDate": null,
						"compDatasetName": "Enhanced Computer Coverage",
						"compValueName": [
							"Included"
						],
						"compEventName": [
							"RULE:BRVALIDATEAPPLICATIONINTEREST"
						],
						"compMappingID": "7276422",
						"compApplicabilityCriteriaValue": "6016",
						"compAdditionalInfo": null,
						"compDatasetVersion": "1",
						"compEditable": "N",
						"compValueType": "D"
					}
				]
			},
			{
				"datasetID": 5975,
				"datasetName": "Outdoor Signs",
				"parentDatasetID": null,
				"additionalInfo": null,
				"mappingID": 7276420,
				"systemRefID": null,
				"entityType": "Risk",
				"applicabilityCriteria": "Product",
				"applicabilityCriteriaValue": "6016",
				"defaultValue": "1",
				"datasetVersion": "1",
				"coverageDisplaySequence": 6,
				"valueName": [
					"10000"
				],
				"valueType": "d",
				"displayValue": [
					"$10,000"
				],
				"createdOn": "2017-01-01T00:00:00+05:30",
				"createdBy": null,
				"typeName": "Coverage",
				"validationName": [
					"Required"
				],
				"controlName": "Placeholder_Text",
				"eventName": [
					"RULE:BRVALIDATEAPPLICATIONINTEREST"
				],
				"url": null,
				"groupDisplaySequence": 4,
				"coverageId": 3,
				"coverageName": "General Aggregate Limit",
				"frequentlyAddedCov": "N",
				"mandatoryCoverage": "Y",
				"rules": null,
				"appearUI": "Y",
				"editable": "N",
				"effectiveDate": null,
				"effectiveEndDate": null,
				"components": [
					{
						"compCreatedBy": null,
						"compParentDatasetID": null,
						"compSystemRefID": null,
						"compParentRiskReference": 2,
						"compDisplaySequence": 6,
						"compURL": null,
						"compCreatedOn": "2017-01-01T00:00:00+05:30",
						"compControlName": "Placeholder_Text",
						"compLevelName": "Building",
						"compAppearUI": "N",
						"compTypeName": "Coverage",
						"compDefaultValue": "1",
						"compValidationName": [
							"Required"
						],
						"compApplicabilityCriteria": "Product",
						"compDatasetID": 5975,
						"compEffectiveEndDate": null,
						"componentName": "Basic BOP",
						"compEntityType": "Risk",
						"compShowAsHelp": "N",
						"compDisplayValue": [
							"$10,000"
						],
						"compEffectiveDate": null,
						"compDatasetName": "Outdoor Signs",
						"compValueName": [
							"10000"
						],
						"compEventName": [
							"RULE:BRVALIDATEAPPLICATIONINTEREST"
						],
						"compMappingID": "7276421",
						"compApplicabilityCriteriaValue": "6016",
						"compAdditionalInfo": null,
						"compDatasetVersion": "1",
						"compEditable": "N",
						"compValueType": "d"
					},
					{
						"compCreatedBy": null,
						"compParentDatasetID": null,
						"compSystemRefID": null,
						"compParentRiskReference": 2,
						"compDisplaySequence": 6,
						"compURL": null,
						"compCreatedOn": "2017-01-01T00:00:00+05:30",
						"compControlName": "Placeholder_Text",
						"compLevelName": "Building",
						"compAppearUI": "Y",
						"compTypeName": "Coverage",
						"compDefaultValue": "1",
						"compValidationName": [
							"Required"
						],
						"compApplicabilityCriteria": "Product",
						"compDatasetID": 5975,
						"compEffectiveEndDate": null,
						"componentName": "Basic BOP_Business Link_for Display",
						"compEntityType": "Risk",
						"compShowAsHelp": "N",
						"compDisplayValue": [
							"$10,000"
						],
						"compEffectiveDate": null,
						"compDatasetName": "Outdoor Signs",
						"compValueName": [
							"10000"
						],
						"compEventName": [
							"RULE:BRVALIDATEAPPLICATIONINTEREST"
						],
						"compMappingID": "7276420",
						"compApplicabilityCriteriaValue": "6016",
						"compAdditionalInfo": null,
						"compDatasetVersion": "1",
						"compEditable": "N",
						"compValueType": "d"
					}
				]
			},
			{
				"datasetID": 8955,
				"datasetName": "Per Occurrence Liability Limit",
				"parentDatasetID": null,
				"additionalInfo": null,
				"mappingID": 7276452,
				"systemRefID": null,
				"entityType": "Coverage",
				"applicabilityCriteria": "Product",
				"applicabilityCriteriaValue": "6016",
				"defaultValue": "1",
				"datasetVersion": "1",
				"coverageDisplaySequence": 5,
				"valueName": [
					"1000000"
				],
				"valueType": "D",
				"displayValue": [
					"$1000000"
				],
				"createdOn": "2018-03-22T00:00:00+05:30",
				"createdBy": null,
				"typeName": "Coverage",
				"validationName": [
					"Required"
				],
				"controlName": "Drop_Down",
				"eventName": [
					"RULE:BRVALIDATEAPPLICATIONINTEREST"
				],
				"url": null,
				"groupDisplaySequence": 4,
				"coverageId": 2,
				"coverageName": "Per Occurance Liability Limit",
				"frequentlyAddedCov": "N",
				"mandatoryCoverage": "Y",
				"rules": null,
				"appearUI": "Y",
				"editable": "N",
				"effectiveDate": null,
				"effectiveEndDate": null,
				"components": [
					{
						"compCreatedBy": null,
						"compParentDatasetID": null,
						"compSystemRefID": null,
						"compParentRiskReference": null,
						"compDisplaySequence": 5,
						"compURL": null,
						"compCreatedOn": "2018-03-22T00:00:00+05:30",
						"compControlName": "Drop_Down",
						"compLevelName": "Policy",
						"compAppearUI": "Y",
						"compTypeName": "Coverage",
						"compDefaultValue": "1",
						"compValidationName": [
							"Required"
						],
						"compApplicabilityCriteria": "Product",
						"compDatasetID": 8955,
						"compEffectiveEndDate": null,
						"componentName": "Basic BOP_Business Link_for Display",
						"compEntityType": "Coverage",
						"compShowAsHelp": "N",
						"compDisplayValue": [
							"$1000000"
						],
						"compEffectiveDate": null,
						"compDatasetName": "Per Occurrence Liability Limit",
						"compValueName": [
							"1000000"
						],
						"compEventName": [
							"RULE:BRVALIDATEAPPLICATIONINTEREST"
						],
						"compMappingID": "7276452",
						"compApplicabilityCriteriaValue": "6016",
						"compAdditionalInfo": null,
						"compDatasetVersion": "1",
						"compEditable": "N",
						"compValueType": "D"
					}
				]
			},
			{
				"datasetID": 5947,
				"datasetName": "General Aggregate Limit",
				"parentDatasetID": null,
				"additionalInfo": null,
				"mappingID": 7276450,
				"systemRefID": null,
				"entityType": "Coverage",
				"applicabilityCriteria": "Product",
				"applicabilityCriteriaValue": "6016",
				"defaultValue": "1",
				"datasetVersion": "1",
				"coverageDisplaySequence": 6,
				"valueName": [
					"2,000,000"
				],
				"valueType": "D",
				"displayValue": [
					"$2,00,0000"
				],
				"createdOn": "2018-03-22T00:00:00+05:30",
				"createdBy": null,
				"typeName": "Coverage",
				"validationName": [
					"Required"
				],
				"controlName": "Text_Box",
				"eventName": [
					"RULE:BRVALIDATEAPPLICATIONINTEREST"
				],
				"url": null,
				"groupDisplaySequence": 4,
				"coverageId": 3,
				"coverageName": "General Aggregate Limit",
				"frequentlyAddedCov": "N",
				"mandatoryCoverage": "Y",
				"rules": null,
				"appearUI": "Y",
				"editable": "N",
				"effectiveDate": null,
				"effectiveEndDate": null,
				"components": [
					{
						"compCreatedBy": null,
						"compParentDatasetID": null,
						"compSystemRefID": null,
						"compParentRiskReference": null,
						"compDisplaySequence": 6,
						"compURL": null,
						"compCreatedOn": "2018-03-22T00:00:00+05:30",
						"compControlName": "Text_Box",
						"compLevelName": "Policy",
						"compAppearUI": "Y",
						"compTypeName": "Coverage",
						"compDefaultValue": "1",
						"compValidationName": [
							"Required"
						],
						"compApplicabilityCriteria": "Product",
						"compDatasetID": 5947,
						"compEffectiveEndDate": null,
						"componentName": "Basic BOP_Business Link_for Display",
						"compEntityType": "Coverage",
						"compShowAsHelp": "N",
						"compDisplayValue": [
							"$2,00,0000"
						],
						"compEffectiveDate": null,
						"compDatasetName": "General Aggregate Limit",
						"compValueName": [
							"2,000,000"
						],
						"compEventName": [
							"RULE:BRVALIDATEAPPLICATIONINTEREST"
						],
						"compMappingID": "7276450",
						"compApplicabilityCriteriaValue": "6016",
						"compAdditionalInfo": null,
						"compDatasetVersion": "1",
						"compEditable": "N",
						"compValueType": "D"
					}
				]
			}
		]
	},
	{
		"datasetID": 1111140,
		"datasetName": "Safety Group",
		"parentDatasetID": null,
		"additionalInfo": null,
		"mappingID": 7276466,
		"systemRefID": null,
		"entityType": "Coverage",
		"applicabilityCriteria": "Product",
		"applicabilityCriteriaValue": "6016",
		"defaultValue": "1",
		"datasetVersion": "1",
		"coverageDisplaySequence": 1,
		"valueName": [
			"Included"
		],
		"valueType": "D",
		"displayValue": [
			"Included"
		],
		"createdOn": "2018-03-29T00:00:00+05:30",
		"createdBy": null,
		"typeName": "Coverage",
		"validationName": [
			"Required"
		],
		"controlName": "Placeholder_Text",
		"eventName": [
			"RULE:BRVALIDATEAPPLICATIONINTEREST"
		],
		"url": null,
		"groupDisplaySequence": 1,
		"coverageId": 5,
		"coverageName": "Safety Group",
		"frequentlyAddedCov": "N",
		"mandatoryCoverage": "Y",
		"rules": null,
		"appearUI": "Y",
		"editable": "N",
		"effectiveDate": null,
		"effectiveEndDate": null,
		"components": [
			{
				"compCreatedBy": null,
				"compParentDatasetID": null,
				"compSystemRefID": null,
				"compParentRiskReference": null,
				"compDisplaySequence": 1,
				"compURL": null,
				"compCreatedOn": "2018-03-29T00:00:00+05:30",
				"compControlName": "Placeholder_Text",
				"compLevelName": "Policy",
				"compAppearUI": "Y",
				"compTypeName": "Coverage",
				"compDefaultValue": "1",
				"compValidationName": [
					"Required"
				],
				"compApplicabilityCriteria": "Product",
				"compDatasetID": 1111140,
				"compEffectiveEndDate": null,
				"componentName": null,
				"compEntityType": "Coverage",
				"compShowAsHelp": "N",
				"compDisplayValue": [
					"Included"
				],
				"compEffectiveDate": null,
				"compDatasetName": "Safety Group",
				"compValueName": [
					"Included"
				],
				"compEventName": [
					"RULE:BRVALIDATEAPPLICATIONINTEREST"
				],
				"compMappingID": "7276466",
				"compApplicabilityCriteriaValue": "6016",
				"compAdditionalInfo": null,
				"compDatasetVersion": "1",
				"compEditable": "N",
				"compValueType": "D"
			}
		],
		"subGroups": null,
		"toolTip": "Yes"
	},
	{
		"datasetID": 8958,
		"datasetName": "Business Link",
		"parentDatasetID": null,
		"additionalInfo": null,
		"mappingID": 7276467,
		"systemRefID": null,
		"entityType": "Coverage",
		"applicabilityCriteria": "Product",
		"applicabilityCriteriaValue": "6016",
		"defaultValue": "1",
		"datasetVersion": "1",
		"coverageDisplaySequence": 2,
		"valueName": [
			"Included"
		],
		"valueType": "D",
		"displayValue": [
			"Included"
		],
		"createdOn": "2018-03-29T00:00:00+05:30",
		"createdBy": null,
		"typeName": "Coverage",
		"validationName": [
			"Required"
		],
		"controlName": "Placeholder_Text",
		"eventName": [
			"RULE:BRVALIDATEAPPLICATIONINTEREST"
		],
		"url": null,
		"groupDisplaySequence": 2,
		"coverageId": 4,
		"coverageName": "Business Link",
		"frequentlyAddedCov": "N",
		"mandatoryCoverage": "Y",
		"rules": null,
		"appearUI": "Y",
		"editable": "N",
		"effectiveDate": null,
		"effectiveEndDate": null,
		"components": [
			{
				"compCreatedBy": null,
				"compParentDatasetID": null,
				"compSystemRefID": null,
				"compParentRiskReference": null,
				"compDisplaySequence": 2,
				"compURL": null,
				"compCreatedOn": "2018-03-29T00:00:00+05:30",
				"compControlName": "Placeholder_Text",
				"compLevelName": "Policy",
				"compAppearUI": "Y",
				"compTypeName": "Coverage",
				"compDefaultValue": "1",
				"compValidationName": [
					"Required"
				],
				"compApplicabilityCriteria": "Product",
				"compDatasetID": 8958,
				"compEffectiveEndDate": null,
				"componentName": null,
				"compEntityType": "Coverage",
				"compShowAsHelp": "N",
				"compDisplayValue": [
					"Included"
				],
				"compEffectiveDate": null,
				"compDatasetName": "Business Link",
				"compValueName": [
					"Included"
				],
				"compEventName": [
					"RULE:BRVALIDATEAPPLICATIONINTEREST"
				],
				"compMappingID": "7276467",
				"compApplicabilityCriteriaValue": "6016",
				"compAdditionalInfo": null,
				"compDatasetVersion": "1",
				"compEditable": "N",
				"compValueType": "D"
			}
		],
		"subGroups": null,
		"toolTip": "Yes"
	}
]