<svg xmlns="http://www.w3.org/2000/svg" xmlns:xlink="http://www.w3.org/1999/xlink" width="18" height="18" viewBox="0 0 18 18">
    <defs>
        <path id="a" d="M7.9 16c0-1.71 1.39-3.1 3.1-3.1h4V11h-4c-2.76 0-5 2.24-5 5s2.24 5 5 5h4v-1.9h-4c-1.71 0-3.1-1.39-3.1-3.1zm4.1 1h8v-2h-8v2zm9-6h-4v1.9h4c1.71 0 3.1 1.39 3.1 3.1 0 1.71-1.39 3.1-3.1 3.1h-4V21h4c2.76 0 5-2.24 5-5s-2.24-5-5-5z"/>
    </defs>
    <g fill="none" fill-rule="evenodd" transform="translate(-7 -7)">
        <use fill="#000" transform="rotate(-45 16 16)" xlink:href="#a"/>
    </g>
</svg>
